Ebola case study: model codes – EpiSim
…
To enable reproducibility of the case study and re-application of these codes in other situations.

All codes needed to reproduce the results of the original King et al. (2015) paper are available on datadryad.org.

Data and model

Situation-report data

Download the data from the WHO Situation Report of 1 October 2014:

read_csv("https://kingaa.github.io/sbied/ebola/ebola_data.csv") -> dat

dat

# A tibble: 74 × 4
    week date       country cases
   <dbl> <date>     <chr>   <dbl>
 1     1 2014-01-05 Guinea  2.24 
 2     2 2014-01-12 Guinea  2.24 
 3     3 2014-01-19 Guinea  0.073
 4     4 2014-01-26 Guinea  5.72 
 5     5 2014-02-02 Guinea  3.95 
 6     6 2014-02-09 Guinea  5.44 
 7     7 2014-02-16 Guinea  3.27 
 8     8 2014-02-23 Guinea  5.76 
 9     9 2014-03-02 Guinea  7.62 
10    10 2014-03-09 Guinea  7.62 
# ℹ 64 more rows
…
